%YAML 1.1
%TAG !u! tag:unity3d.com,2011:
--- !u!114 &11400000
MonoBehaviour:
  m_ObjectHideFlags: 0
  m_CorrespondingSourceObject: {fileID: 0}
  m_PrefabInstance: {fileID: 0}
  m_PrefabAsset: {fileID: 0}
  m_GameObject: {fileID: 0}
  m_Enabled: 1
  m_EditorHideFlags: 0
  m_Script: {fileID: -1893448595, guid: a040fb66244a7f54289914d98ea4ef7d, type: 3}
  m_Name: ItemPickup
  m_EditorClassIdentifier: 
  _data:
    _json: '{"graph":{"variables":{"collection":{"$content":[],"$version":"A"},"$version":"A"},"controlInputDefinitions":[],"controlOutputDefinitions":[],"valueInputDefinitions":[],"valueOutputDefinitions":[],"title":null,"summary":null,"pan":{"x":884.9549,"y":160.2229},"zoom":1.0,"elements":[{"coroutine":false,"defaultValues":{"target":null},"position":{"x":-507.0,"y":-2.0},"guid":"d7f94469-8751-4a25-831c-d900fb3a0e60","$version":"A","$type":"Bolt.OnMouseDown","$id":"9"},{"defaultValues":{},"position":{"x":1842.0,"y":618.0},"guid":"74995f69-359e-44b1-973d-d6d18b30b840","$version":"A","$type":"Bolt.GenericAdd","$id":"11"},{"defaultValues":{},"position":{"x":1789.0,"y":-43.0},"guid":"bde62be1-6fef-4a11-a3de-f219d8f93d12","$version":"A","$type":"Bolt.Branch","$id":"13"},{"chainable":false,"member":{"name":"LogWarning","parameterTypes":["System.Object"],"targetType":"UnityEngine.Debug","targetTypeName":"UnityEngine.Debug","$version":"A"},"defaultValues":{},"position":{"x":2034.0,"y":374.0},"guid":"ecb78542-d52e-4b24-a375-c0e4eeed05e2","$version":"A","$type":"Bolt.InvokeMember","$id":"15"},{"type":"System.String","value":{"$content":"Clicked","$type":"System.String"},"defaultValues":{},"position":{"x":-482.0,"y":-135.0},"guid":"eb68ebdf-25b2-49eb-8489-6705549c621f","$version":"A","$type":"Bolt.Literal","$id":"18"},{"type":"System.Boolean","value":{"$content":false,"$type":"System.Boolean"},"defaultValues":{},"position":{"x":2543.0,"y":562.0},"guid":"3ecf6569-259f-4e8d-977e-3b68e62fc7b6","$version":"A","$type":"Bolt.Literal","$id":"20"},{"numeric":true,"defaultValues":{"b":{"$content":7.0,"$type":"System.Single"}},"position":{"x":1442.0,"y":186.0},"guid":"116f9e24-b1bb-4a46-8106-54e8b1535a61","$version":"A","$type":"Bolt.GreaterOrEqual","$id":"22"},{"type":"System.String","value":{"$content":"Out
      of Range: ","$type":"System.String"},"defaultValues":{},"position":{"x":598.0,"y":265.0},"guid":"003c523e-1562-415e-984a-7c6dcee05ec3","$version":"A","$type":"Bolt.Literal","$id":"24"},{"chainable":false,"member":{"name":"Log","parameterTypes":["System.Object"],"targetType":"UnityEngine.Debug","targetTypeName":"UnityEngine.Debug","$version":"A"},"defaultValues":{},"position":{"x":918.0,"y":75.0},"guid":"d1f5dcdf-9bba-492a-9858-05d1358cd50b","$version":"A","$type":"Bolt.InvokeMember","$id":"26"},{"chainable":false,"member":{"name":"Log","parameterTypes":["System.Object"],"targetType":"UnityEngine.Debug","targetTypeName":"UnityEngine.Debug","$version":"A"},"defaultValues":{},"position":{"x":1110.0,"y":7.0},"guid":"8a80ddbc-6af5-4688-89c5-251d49286476","$version":"A","$type":"Bolt.InvokeMember","$id":"29"},{"defaultValues":{"minuend":{"x":0.0,"y":0.0,"z":0.0,"$type":"UnityEngine.Vector3"},"subtrahend":{"x":0.0,"y":0.0,"z":0.0,"$type":"UnityEngine.Vector3"}},"position":{"x":231.0,"y":88.0},"guid":"073531b4-1695-4a27-a373-4ec419a890e1","$version":"A","$type":"Bolt.Vector3Subtract","$id":"32"},{"defaultValues":{},"position":{"x":2188.0,"y":-137.0},"guid":"f685fb65-86ed-406d-9c94-c14d9feff202","$version":"A","$type":"Bolt.Break","$id":"34"},{"type":"System.String","value":{"$content":"In
      Range: ","$type":"System.String"},"defaultValues":{},"position":{"x":969.0,"y":227.0},"guid":"d27630d7-7677-48ab-855a-4d5c57c98ea8","$version":"A","$type":"Bolt.Literal","$id":"36"},{"defaultValues":{},"position":{"x":1698.0,"y":486.0},"guid":"24154b17-41fd-400b-ade3-de1d2497dc99","$version":"A","$type":"Bolt.Self","$id":"38"},{"numeric":true,"defaultValues":{"b":{"$content":1.0,"$type":"System.Single"}},"position":{"x":605.0,"y":127.0},"guid":"b7b3804b-375e-4601-bafe-0b635a9378bf","$version":"A","$type":"Bolt.LessOrEqual","$id":"40"},{"chainable":false,"member":{"name":"Find","parameterTypes":["System.String"],"targetType":"UnityEngine.GameObject","targetTypeName":"UnityEngine.GameObject","$version":"A"},"defaultValues":{"%name":{"$content":"Inventory","$type":"System.String"}},"position":{"x":2238.0,"y":375.0},"guid":"57745a4c-8e27-4af2-82bd-af10c32c4815","$version":"A","$type":"Bolt.InvokeMember","$id":"42"},{"chainable":false,"member":{"name":"SetActive","parameterTypes":["System.Boolean"],"targetType":"UnityEngine.GameObject","targetTypeName":"UnityEngine.GameObject","$version":"A"},"defaultValues":{"target":null,"%value":{"$content":false,"$type":"System.Boolean"}},"position":{"x":2696.0,"y":376.0},"guid":"295ecb37-86db-4900-9677-7b095cf7aaf7","$version":"A","$type":"Bolt.InvokeMember","$id":"45"},{"defaultValues":{},"position":{"x":2003.0,"y":-142.0},"guid":"5cf3267a-bec0-4b48-b6d3-7b6276e36f2c","$version":"A","$type":"Bolt.Branch","$id":"48"},{"member":{"name":"position","parameterTypes":null,"targetType":"UnityEngine.Transform","targetTypeName":"UnityEngine.Transform","$version":"A"},"defaultValues":{"target":null},"position":{"x":47.0,"y":88.0},"guid":"1196b8a8-7542-4049-9dfe-b1322a12c736","$version":"A","$type":"Bolt.GetMember","$id":"50"},{"defaultValues":{},"position":{"x":1667.0,"y":112.0},"guid":"d9139733-e2fc-4717-a573-0adb362c5de7","$version":"A","$type":"Bolt.Branch","$id":"53"},{"defaultValues":{"index":{"$content":0,"$type":"System.Int32"}},"position":{"x":1852.0,"y":349.0},"guid":"dd5d3cd7-1878-4e97-9e0e-7850b21c2b79","$version":"A","$type":"Bolt.SetListItem","$id":"55"},{"type":"System.String","value":{"$content":"Inventory
      Full","$type":"System.String"},"defaultValues":{},"position":{"x":1840.0,"y":179.0},"guid":"bb26303c-cd52-4017-a3fd-e5ad634802b6","$version":"A","$type":"Bolt.Literal","$id":"57"},{"member":{"name":"position","parameterTypes":null,"targetType":"UnityEngine.Transform","targetTypeName":"UnityEngine.Transform","$version":"A"},"defaultValues":{"target":null},"position":{"x":50.0,"y":176.0},"guid":"59cadc31-fa03-45ba-9d81-bd45ac2df4ca","$version":"A","$type":"Bolt.GetMember","$id":"59"},{"type":"System.String","value":{"$content":"_","$type":"System.String"},"defaultValues":{},"position":{"x":1583.0,"y":-100.0},"guid":"e6985d89-c9ce-4f19-9766-2cd18d462b4d","$version":"A","$type":"Bolt.Literal","$id":"62"},{"defaultValues":{"index":{"$content":0,"$type":"System.Int32"}},"position":{"x":1499.0,"y":-218.0},"guid":"8fc6821d-b31a-4f00-9fc1-85d3776409a0","$version":"A","$type":"Bolt.GetListItem","$id":"64"},{"member":{"name":"magnitude","parameterTypes":null,"targetType":"UnityEngine.Vector4","targetTypeName":"UnityEngine.Vector4","$version":"A"},"defaultValues":{"target":{"x":0.0,"y":0.0,"z":0.0,"w":0.0,"$type":"UnityEngine.Vector4"}},"position":{"x":376.0,"y":88.0},"guid":"f30ec9b2-0882-4275-92bd-78c1456274da","$version":"A","$type":"Bolt.GetMember","$id":"66"},{"chainable":false,"member":{"name":"FindGameObjectWithTag","parameterTypes":["System.String"],"targetType":"UnityEngine.GameObject","targetTypeName":"UnityEngine.GameObject","$version":"A"},"defaultValues":{"%tag":{"$content":"Player","$type":"System.String"}},"position":{"x":-218.0,"y":-4.0},"guid":"d48d9242-3257-444d-8b8a-bf4703df8838","$version":"A","$type":"Bolt.InvokeMember","$id":"69"},{"defaultValues":{},"position":{"x":1678.0,"y":651.0},"guid":"6e85c921-32fe-4ec2-80f9-2eb4a8412414","$version":"A","$type":"Bolt.GenericAdd","$id":"72"},{"chainable":false,"member":{"name":"LogWarning","parameterTypes":["System.Object"],"targetType":"UnityEngine.Debug","targetTypeName":"UnityEngine.Debug","$version":"A"},"defaultValues":{},"position":{"x":2040.0,"y":120.0},"guid":"0389f221-e29f-4f04-9baa-7ca7b8b09b6f","$version":"A","$type":"Bolt.InvokeMember","$id":"74"},{"numeric":false,"defaultValues":{},"position":{"x":1713.0,"y":-187.0},"guid":"dc40bfe9-3212-4049-a060-596df06641be","$version":"A","$type":"Bolt.Equal","$id":"77"},{"type":"System.String","value":{"$content":"
      put in slot: ","$type":"System.String"},"defaultValues":{},"position":{"x":1448.0,"y":733.0},"guid":"f70a95f4-96db-4d7f-813b-e745494fef3b","$version":"A","$type":"Bolt.Literal","$id":"79"},{"numeric":true,"defaultValues":{"b":{"$content":5.0,"$type":"System.Single"}},"position":{"x":1583.0,"y":-9.0},"guid":"d82fd096-8c3f-49c5-a64e-2a369c840bb3","$version":"A","$type":"Bolt.LessOrEqual","$id":"81"},{"member":{"name":"tag","parameterTypes":null,"targetType":"UnityEngine.GameObject","targetTypeName":"UnityEngine.GameObject","$version":"A"},"defaultValues":{"target":null},"position":{"x":1450.0,"y":645.0},"guid":"9b4d77fd-28db-44fd-9612-e7cf84d24c55","$version":"A","$type":"Bolt.GetMember","$id":"83"},{"chainable":false,"member":{"name":"Log","parameterTypes":["System.Object"],"targetType":"UnityEngine.Debug","targetTypeName":"UnityEngine.Debug","$version":"A"},"defaultValues":{},"position":{"x":-310.0,"y":-157.0},"guid":"f8bb23e8-c63e-44ca-acc0-220f6a55498c","$version":"A","$type":"Bolt.InvokeMember","$id":"86"},{"defaultValues":{"firstIndex":{"$content":0,"$type":"System.Int32"},"lastIndex":{"$content":7,"$type":"System.Int32"},"step":{"$content":1,"$type":"System.Int32"}},"position":{"x":1272.0,"y":6.0},"guid":"53a53129-1faa-45cc-9c9c-b6a689a6e358","$version":"A","$type":"Bolt.For","$id":"89"},{"defaultValues":{},"position":{"x":779.0,"y":-6.0},"guid":"0dded811-533c-4eb6-a08a-a0dae3a037fc","$version":"A","$type":"Bolt.Branch","$id":"91"},{"defaultValues":{},"position":{"x":1644.0,"y":374.0},"guid":"1902a362-ba24-46ee-830d-ac9f4e367c84","$version":"A","$type":"Bolt.GenericSubtract","$id":"93"},{"chainable":false,"member":{"name":"parent","parameterTypes":null,"targetType":"UnityEngine.Transform","targetTypeName":"UnityEngine.Transform","$version":"A"},"defaultValues":{"target":null,"input":null},"position":{"x":2489.0,"y":374.0},"guid":"80ddf788-7452-4fbe-8dba-af63816c6a74","$version":"A","$type":"Bolt.SetMember","$id":"95"},{"specifyFallback":false,"kind":"Application","defaultValues":{"name":{"$content":"PlayerInventory","$type":"System.String"}},"position":{"x":1239.0,"y":-220.0},"guid":"d698090b-2643-43a6-812e-cae74dbfd5be","$version":"A","$type":"Bolt.GetVariable","$id":"98"},{"type":"System.Int32","value":{"$content":1,"$type":"System.Int32"},"defaultValues":{},"position":{"x":1504.0,"y":427.0},"guid":"2454b9df-79dd-4d55-8792-453c89cec905","$version":"A","$type":"Bolt.Literal","$id":"100"},{"defaultValues":{},"position":{"x":1112.0,"y":140.0},"guid":"30fe65ad-6e5b-4d4d-8c00-d41e1e2794e4","$version":"A","$type":"Bolt.GenericAdd","$id":"102"},{"defaultValues":{},"position":{"x":804.0,"y":214.0},"guid":"30b6eca6-e809-4e03-91f8-e54ef196f717","$version":"A","$type":"Bolt.GenericAdd","$id":"104"},{"sourceUnit":{"$ref":"29"},"sourceKey":"exit","destinationUnit":{"$ref":"89"},"destinationKey":"enter","guid":"76724fb2-091e-4890-af49-1016e13f72b3","$type":"Bolt.ControlConnection"},{"sourceUnit":{"$ref":"69"},"sourceKey":"exit","destinationUnit":{"$ref":"91"},"destinationKey":"enter","guid":"4b5c3fad-4a08-450f-86d9-9ef4b25d6144","$type":"Bolt.ControlConnection"},{"sourceUnit":{"$ref":"91"},"sourceKey":"ifFalse","destinationUnit":{"$ref":"26"},"destinationKey":"enter","guid":"415074a2-9c73-4149-82eb-7ba98cdcf33c","$type":"Bolt.ControlConnection"},{"sourceUnit":{"$ref":"91"},"sourceKey":"ifTrue","destinationUnit":{"$ref":"29"},"destinationKey":"enter","guid":"02eea9cf-4bf1-4dd0-a13b-44528fd06a23","$type":"Bolt.ControlConnection"},{"sourceUnit":{"$ref":"9"},"sourceKey":"trigger","destinationUnit":{"$ref":"86"},"destinationKey":"enter","guid":"9f37f954-25af-4fc5-9da9-06daff95c7b2","$type":"Bolt.ControlConnection"},{"sourceUnit":{"$ref":"55"},"sourceKey":"exit","destinationUnit":{"$ref":"15"},"destinationKey":"enter","guid":"70ace29b-b2cc-4547-8169-2307421500b0","$type":"Bolt.ControlConnection"},{"sourceUnit":{"$ref":"86"},"sourceKey":"exit","destinationUnit":{"$ref":"69"},"destinationKey":"enter","guid":"ef275c46-4e54-42e0-ab2d-6b0cf655aae1","$type":"Bolt.ControlConnection"},{"sourceUnit":{"$ref":"48"},"sourceKey":"ifTrue","destinationUnit":{"$ref":"34"},"destinationKey":"enter","guid":"dc32e6c1-a880-422f-b8e3-73d3e590a2f3","$type":"Bolt.ControlConnection"},{"sourceUnit":{"$ref":"53"},"sourceKey":"ifTrue","destinationUnit":{"$ref":"74"},"destinationKey":"enter","guid":"6405bb4c-456a-482c-a22b-36856e5aa87a","$type":"Bolt.ControlConnection"},{"sourceUnit":{"$ref":"89"},"sourceKey":"exit","destinationUnit":{"$ref":"53"},"destinationKey":"enter","guid":"95b581db-e899-44b4-afb2-82ee0f123847","$type":"Bolt.ControlConnection"},{"sourceUnit":{"$ref":"89"},"sourceKey":"body","destinationUnit":{"$ref":"13"},"destinationKey":"enter","guid":"157f42c1-e1b5-4896-af39-1c3ca16a7ccc","$type":"Bolt.ControlConnection"},{"sourceUnit":{"$ref":"13"},"sourceKey":"ifTrue","destinationUnit":{"$ref":"48"},"destinationKey":"enter","guid":"f4c91c61-85c4-433a-8f37-037f248996a3","$type":"Bolt.ControlConnection"},{"sourceUnit":{"$ref":"53"},"sourceKey":"ifFalse","destinationUnit":{"$ref":"55"},"destinationKey":"enter","guid":"91ef2a2e-280e-4397-b257-91eae89af002","$type":"Bolt.ControlConnection"},{"sourceUnit":{"$ref":"15"},"sourceKey":"exit","destinationUnit":{"$ref":"42"},"destinationKey":"enter","guid":"af072a9b-9f42-4a0e-8aaa-5f9d2c989127","$type":"Bolt.ControlConnection"},{"sourceUnit":{"$ref":"42"},"sourceKey":"exit","destinationUnit":{"$ref":"95"},"destinationKey":"assign","guid":"56a7de03-577d-4bf0-8c13-30973222367d","$type":"Bolt.ControlConnection"},{"sourceUnit":{"$ref":"95"},"sourceKey":"assigned","destinationUnit":{"$ref":"45"},"destinationKey":"enter","guid":"dde15f95-9b2b-4039-8872-027b0290e192","$type":"Bolt.ControlConnection"},{"sourceUnit":{"$ref":"64"},"sourceKey":"item","destinationUnit":{"$ref":"77"},"destinationKey":"a","guid":"3234a713-9399-4f64-b914-7270f61144a8","$type":"Bolt.ValueConnection"},{"sourceUnit":{"$ref":"59"},"sourceKey":"value","destinationUnit":{"$ref":"32"},"destinationKey":"subtrahend","guid":"5997f839-c440-44b0-afb9-caa5584821ab","$type":"Bolt.ValueConnection"},{"sourceUnit":{"$ref":"93"},"sourceKey":"difference","destinationUnit":{"$ref":"55"},"destinationKey":"index","guid":"22f1a692-b604-4f58-83d0-5de721b57f2a","$type":"Bolt.ValueConnection"},{"sourceUnit":{"$ref":"89"},"sourceKey":"currentIndex","destinationUnit":{"$ref":"93"},"destinationKey":"minuend","guid":"5cea6009-18a4-46d5-a4ed-60fdf2ac9044","$type":"Bolt.ValueConnection"},{"sourceUnit":{"$ref":"81"},"sourceKey":"comparison","destinationUnit":{"$ref":"13"},"destinationKey":"condition","guid":"19af4795-3686-4b61-959f-5c9da27741d7","$type":"Bolt.ValueConnection"},{"sourceUnit":{"$ref":"66"},"sourceKey":"value","destinationUnit":{"$ref":"40"},"destinationKey":"a","guid":"44d95028-703d-4a01-8583-e8e0bfaed39e","$type":"Bolt.ValueConnection"},{"sourceUnit":{"$ref":"18"},"sourceKey":"output","destinationUnit":{"$ref":"86"},"destinationKey":"%message","guid":"dd92fac4-da64-47e0-ad64-7c352e04ff33","$type":"Bolt.ValueConnection"},{"sourceUnit":{"$ref":"50"},"sourceKey":"value","destinationUnit":{"$ref":"32"},"destinationKey":"minuend","guid":"4bf60fec-9327-497b-b176-6c2fb6b31ebd","$type":"Bolt.ValueConnection"},{"sourceUnit":{"$ref":"11"},"sourceKey":"sum","destinationUnit":{"$ref":"15"},"destinationKey":"%message","guid":"9ec8f27d-17be-4db1-bfba-c76f19d51065","$type":"Bolt.ValueConnection"},{"sourceUnit":{"$ref":"72"},"sourceKey":"sum","destinationUnit":{"$ref":"11"},"destinationKey":"a","guid":"07e1cc46-0915-49fa-907d-c1ef2f350324","$type":"Bolt.ValueConnection"},{"sourceUnit":{"$ref":"98"},"sourceKey":"value","destinationUnit":{"$ref":"64"},"destinationKey":"list","guid":"5b5ae40d-df2f-455b-ba1a-df982dd6be4f","$type":"Bolt.ValueConnection"},{"sourceUnit":{"$ref":"20"},"sourceKey":"output","destinationUnit":{"$ref":"45"},"destinationKey":"%value","guid":"e87835a3-1d2a-43f6-aa9b-83feb26e71fc","$type":"Bolt.ValueConnection"},{"sourceUnit":{"$ref":"66"},"sourceKey":"value","destinationUnit":{"$ref":"102"},"destinationKey":"b","guid":"45b71a6b-210c-4399-b047-d612533dc783","$type":"Bolt.ValueConnection"},{"sourceUnit":{"$ref":"57"},"sourceKey":"output","destinationUnit":{"$ref":"74"},"destinationKey":"%message","guid":"3863e69f-d342-4d5c-ad8c-e98aec1d178d","$type":"Bolt.ValueConnection"},{"sourceUnit":{"$ref":"22"},"sourceKey":"comparison","destinationUnit":{"$ref":"53"},"destinationKey":"condition","guid":"131dc9d3-282c-4851-916a-e00f30b4cf40","$type":"Bolt.ValueConnection"},{"sourceUnit":{"$ref":"42"},"sourceKey":"result","destinationUnit":{"$ref":"95"},"destinationKey":"input","guid":"2c2020a4-d325-4027-bcfc-6786d5ca1163","$type":"Bolt.ValueConnection"},{"sourceUnit":{"$ref":"36"},"sourceKey":"output","destinationUnit":{"$ref":"102"},"destinationKey":"a","guid":"59e67ceb-8b65-4036-ba62-52895c9522c9","$type":"Bolt.ValueConnection"},{"sourceUnit":{"$ref":"98"},"sourceKey":"value","destinationUnit":{"$ref":"55"},"destinationKey":"list","guid":"0ec75228-bd7a-4b59-b225-eb93c4f7cb34","$type":"Bolt.ValueConnection"},{"sourceUnit":{"$ref":"40"},"sourceKey":"comparison","destinationUnit":{"$ref":"91"},"destinationKey":"condition","guid":"ecafedbe-b108-49a5-8d89-b74f1216c7a0","$type":"Bolt.ValueConnection"},{"sourceUnit":{"$ref":"89"},"sourceKey":"currentIndex","destinationUnit":{"$ref":"64"},"destinationKey":"index","guid":"6662e680-49a7-4b11-92da-e16820e9329e","$type":"Bolt.ValueConnection"},{"sourceUnit":{"$ref":"32"},"sourceKey":"difference","destinationUnit":{"$ref":"66"},"destinationKey":"target","guid":"92183f69-4d52-4a77-bcd8-1ce98a98d8bc","$type":"Bolt.ValueConnection"},{"sourceUnit":{"$ref":"38"},"sourceKey":"self","destinationUnit":{"$ref":"55"},"destinationKey":"item","guid":"9b3a6cee-b0ad-4263-88ac-aa2fe3509f47","$type":"Bolt.ValueConnection"},{"sourceUnit":{"$ref":"89"},"sourceKey":"currentIndex","destinationUnit":{"$ref":"11"},"destinationKey":"b","guid":"b471ced5-6fb1-4e34-b97d-774e8d7cc721","$type":"Bolt.ValueConnection"},{"sourceUnit":{"$ref":"77"},"sourceKey":"equal","destinationUnit":{"$ref":"48"},"destinationKey":"condition","guid":"f877885a-c73c-4d41-9151-545b64ca3433","$type":"Bolt.ValueConnection"},{"sourceUnit":{"$ref":"89"},"sourceKey":"currentIndex","destinationUnit":{"$ref":"22"},"destinationKey":"a","guid":"5351b3f3-e42c-4824-8fae-0c71f1d6e2f3","$type":"Bolt.ValueConnection"},{"sourceUnit":{"$ref":"100"},"sourceKey":"output","destinationUnit":{"$ref":"93"},"destinationKey":"subtrahend","guid":"f0e2493f-ff8c-4697-8489-77e4a434a2b9","$type":"Bolt.ValueConnection"},{"sourceUnit":{"$ref":"69"},"sourceKey":"result","destinationUnit":{"$ref":"50"},"destinationKey":"target","guid":"c5092e2f-8ae4-4e0a-beb8-d16d0bdf7e88","$type":"Bolt.ValueConnection"},{"sourceUnit":{"$ref":"89"},"sourceKey":"currentIndex","destinationUnit":{"$ref":"81"},"destinationKey":"a","guid":"ba85964f-74ac-475e-a5d4-5f95182e8d6a","$type":"Bolt.ValueConnection"},{"sourceUnit":{"$ref":"62"},"sourceKey":"output","destinationUnit":{"$ref":"77"},"destinationKey":"b","guid":"c1bced17-000a-4ff6-b1a9-16f783e59390","$type":"Bolt.ValueConnection"},{"sourceUnit":{"$ref":"83"},"sourceKey":"value","destinationUnit":{"$ref":"72"},"destinationKey":"a","guid":"1b791f34-b77a-41fd-9394-6cdb7d8775bf","$type":"Bolt.ValueConnection"},{"sourceUnit":{"$ref":"79"},"sourceKey":"output","destinationUnit":{"$ref":"72"},"destinationKey":"b","guid":"90d75c08-2a1f-4cda-9dc6-d564b37b6042","$type":"Bolt.ValueConnection"},{"sourceUnit":{"$ref":"102"},"sourceKey":"sum","destinationUnit":{"$ref":"29"},"destinationKey":"%message","guid":"064a30c2-ffa5-47d7-bee1-44f03fe84e79","$type":"Bolt.ValueConnection"},{"sourceUnit":{"$ref":"24"},"sourceKey":"output","destinationUnit":{"$ref":"104"},"destinationKey":"a","guid":"4af195f5-5b8e-43bd-9f93-f7ffe58961c0","$type":"Bolt.ValueConnection"},{"sourceUnit":{"$ref":"66"},"sourceKey":"value","destinationUnit":{"$ref":"104"},"destinationKey":"b","guid":"1b438f55-ab1b-4f2e-959e-c4c6c6e56b0b","$type":"Bolt.ValueConnection"},{"sourceUnit":{"$ref":"104"},"sourceKey":"sum","destinationUnit":{"$ref":"26"},"destinationKey":"%message","guid":"f2a444c7-bfb6-4379-9cf5-b2841296726c","$type":"Bolt.ValueConnection"}],"$version":"A"}}'
    _objectReferences: []
